Data Visualization
…
lizards_subset <- lizards %>%
  filter(common_name %in% c("western whiptail", "colorado checkered", "eastern fence")) %>%
  mutate(total_length_cm = total_length / 10) %>%
  group_by(common_name, site) %>%
  summarise(mean_length_cm = mean(total_length_cm, na.rm = TRUE), 
            sd_length_cm = sd(total_length_cm, na.rm = TRUE))

`summarise()` has grouped output by 'common_name'. You can override using the
`.groups` argument.

lizards_subset

# A tibble: 23 × 4
# Groups:   common_name [3]
   common_name        site  mean_length_cm sd_length_cm
   <chr>              <chr>          <dbl>        <dbl>
 1 colorado checkered basn            22.7        6.96 
 2 colorado checkered cali            26.4       NA    
 3 colorado checkered east            24.1        8.63 
 4 colorado checkered ibpe            12         NA    
 5 colorado checkered nort            14.2        3.09 
 6 colorado checkered rabb            13.8        0.354
 7 colorado checkered sand            21.4        1.16 
 8 colorado checkered west            25.2       NA    
 9 eastern fence      east            13.9        0.566
10 eastern fence      ibpe            15.6       NA    
# ℹ 13 more rows
…
